<?xml version="1.0" encoding="UTF-8"?>

<svg version="1.1" viewBox="0 0 11.884 17.587" xmlns="http://www.w3.org/2000/svg">
 <g transform="translate(-97.426 -191.75)">
  <g transform="matrix(-.3723 0 0 -.3723 323.54 475.54)" fill="#ffacab" fill-rule="evenodd">
   <path d="m591.38 730.33c1.7933 0 1.1018 12.322 2.3699 13.59 1.2681 1.2681 13.59 0.57653 13.59 2.3699s-12.322 1.1018-13.59 2.3699c-1.2681 1.2681-0.57654 13.59-2.3699 13.59-1.7934 0-1.1018-12.322-2.3699-13.59-1.2681-1.2681-13.59-0.57654-13.59-2.3699s12.322-1.1018 13.59-2.3699c1.2681-1.2681 0.57655-13.59 2.3699-13.59z" stop-color="#000000" stroke-dashoffset="12.441" stroke-linecap="square" stroke-width=".41288" style="paint-order:markers stroke fill"/>
   <g transform="matrix(1.2107 0 0 1.2107 102.42 569.3)" stroke-width="0">
    <path d="m412.19 120.36c0 2.7873-7e-3 4.7931-0.11133 6.1973-0.10474 1.4042-0.32421 2.1897-0.64257 2.541-0.68376 0.75467-2.2612 0.91211-3.6055 0.91211v0.5c1.3443 0 2.9217 0.15744 3.6055 0.91211 0.31835 0.35136 0.53783 1.1368 0.64257 2.541 0.10475 1.4042 0.11133 3.4119 0.11133 6.1992h0.5c0-2.7873 9e-3 -4.795 0.11328-6.1992 0.10475-1.4042 0.32422-2.1896 0.64258-2.541 0.68376-0.75467 2.2612-0.91211 3.6055-0.91211v-0.5c-1.3443 0-2.9217-0.15744-3.6055-0.91211-0.31835-0.35136-0.53783-1.1368-0.64258-2.541-0.10474-1.4042-0.11327-3.4099-0.11328-6.1973z" color="#000000" style="paint-order:markers stroke fill"/>
    <path d="m413.26 129.26c-0.79145-0.87352-0.81967-3.3322-0.81967-8.9078 0 5.5755-0.0282 8.0343-0.81967 8.9078-0.79145 0.87353-2.4314 0.99407-3.7905 0.99407 1.3591 0 2.9991 0.12054 3.7905 0.99407 0.79145 0.87352 0.81967 3.3322 0.81967 8.9078 0-5.5755 0.0282-8.0343 0.81967-8.9078 0.79145-0.87353 2.4314-0.99407 3.7905-0.99407-1.3591 0-2.9991-0.12054-3.7905-0.99407z" color="#000000" style="paint-order:markers stroke fill"/>
   </g>
   <g transform="matrix(.71294 0 0 .4748 288.27 694.79)" stroke-width="0">
    <path d="m412.19 120.36c0 2.7873-7e-3 4.7931-0.11133 6.1973-0.10474 1.4042-0.32421 2.1897-0.64257 2.541-0.68376 0.75467-2.2612 0.91211-3.6055 0.91211v0.5c1.3443 0 2.9217 0.15744 3.6055 0.91211 0.31835 0.35136 0.53783 1.1368 0.64257 2.541 0.10475 1.4042 0.11133 3.4119 0.11133 6.1992h0.5c0-2.7873 9e-3 -4.795 0.11328-6.1992 0.10475-1.4042 0.32422-2.1896 0.64258-2.541 0.68376-0.75467 2.2612-0.91211 3.6055-0.91211v-0.5c-1.3443 0-2.9217-0.15744-3.6055-0.91211-0.31835-0.35136-0.53783-1.1368-0.64258-2.541-0.10474-1.4042-0.11327-3.4099-0.11328-6.1973z" color="#000000" style="paint-order:markers stroke fill"/>
    <path d="m413.26 129.26c-0.79145-0.87352-0.81967-3.3322-0.81967-8.9078 0 5.5755-0.0282 8.0343-0.81967 8.9078-0.79145 0.87353-2.4314 0.99407-3.7905 0.99407 1.3591 0 2.9991 0.12054 3.7905 0.99407 0.79145 0.87352 0.81967 3.3322 0.81967 8.9078 0-5.5755 0.0282-8.0343 0.81967-8.9078 0.79145-0.87353 2.4314-0.99407 3.7905-0.99407-1.3591 0-2.9991-0.12054-3.7905-0.99407z" color="#000000" style="paint-order:markers stroke fill"/>
   </g>
  </g>
 </g>
</svg>
